<svg width="32" height="32" viewBox="0 0 32 32" fill="none" xmlns="http://www.w3.org/2000/svg">
<path d="M30.8569 11.1267L21.4166 9.68722L17.1997 0.71727C17.0771 0.498838 16.9023 0.31777 16.6926 0.191971C16.4828 0.0661715 16.2454 0 16.0038 0C15.7622 0 15.5248 0.0661715 15.3151 0.191971C15.1054 0.31777 14.9306 0.498838 14.808 0.71727L10.5831 9.68722L1.14273 11.1267C0.896544 11.164 0.665208 11.2728 0.474876 11.4409C0.284544 11.6089 0.142808 11.8294 0.0656915 12.0776C-0.0114252 12.3257 -0.0208466 12.5916 0.0384924 12.845C0.0978314 13.0985 0.223564 13.3295 0.401476 13.5119L7.23409 20.4982L5.62226 30.3648C5.58025 30.6221 5.60767 30.8865 5.70142 31.1283C5.79517 31.3701 5.95152 31.5795 6.15277 31.7329C6.35403 31.8863 6.59217 31.9776 6.84028 31.9964C7.08838 32.0152 7.33655 31.9608 7.55672 31.8393L15.9998 27.1822L24.4429 31.8393C24.6631 31.9608 24.9113 32.0152 25.1594 31.9964C25.4075 31.9776 25.6456 31.8863 25.8469 31.7329C26.0481 31.5795 26.2045 31.3701 26.2982 31.1283C26.392 30.8865 26.4194 30.6221 26.3774 30.3648L24.7656 20.4982L31.5982 13.5119C31.776 13.3297 31.9018 13.0989 31.9613 12.8456C32.0208 12.5924 32.0116 12.3267 31.9347 12.0786C31.8579 11.8306 31.7165 11.61 31.5266 11.4418C31.3366 11.2736 31.1056 11.1644 30.8596 11.1267H30.8569Z" fill="#FFC555"/>
<path d="M15.3838 22H17.4482V12.1357H15.3906L12.8408 13.9062V15.7656L15.2607 14.084H15.3838V22Z" fill="white"/>
</svg>
