<svg width="24" height="24" viewBox="0 0 24 24" fill="none" xmlns="http://www.w3.org/2000/svg">
<path d="M23.1427 8.34504L16.0624 7.26541L12.8998 0.537953C12.8078 0.374129 12.6767 0.238327 12.5194 0.143978C12.3621 0.0496286 12.1841 0 12.0029 0C11.8217 0 11.6436 0.0496286 11.4863 0.143978C11.329 0.238327 11.1979 0.374129 11.106 0.537953L7.9373 7.26541L0.857048 8.34504C0.672408 8.373 0.498906 8.45461 0.356157 8.58064C0.213408 8.70666 0.107106 8.87208 0.0492686 9.05819C-0.00856892 9.2443 -0.015635 9.44367 0.0288693 9.63377C0.0733736 9.82387 0.167673 9.99712 0.301107 10.1339L5.42557 15.3736L4.21669 22.7736C4.18519 22.9666 4.20575 23.1649 4.27607 23.3462C4.34638 23.5276 4.46364 23.6846 4.61458 23.7997C4.76552 23.9147 4.94413 23.9832 5.13021 23.9973C5.31628 24.0114 5.50241 23.9706 5.66754 23.8795L11.9999 20.3867L18.3322 23.8795C18.4973 23.9706 18.6835 24.0114 18.8695 23.9973C19.0556 23.9832 19.2342 23.9147 19.3852 23.7997C19.5361 23.6846 19.6534 23.5276 19.7237 23.3462C19.794 23.1649 19.8146 22.9666 19.783 22.7736L18.5742 15.3736L23.6986 10.1339C23.832 9.99725 23.9264 9.82418 23.971 9.63423C24.0156 9.44428 24.0087 9.24503 23.9511 9.05898C23.8934 8.87293 23.7874 8.70748 23.6449 8.58133C23.5024 8.45517 23.3292 8.37333 23.1447 8.34504H23.1427Z" fill="#7E95DC"/>
<path d="M10.8945 13.291H11.9668C12.916 13.291 13.502 13.7715 13.502 14.5449C13.502 15.2891 12.875 15.793 11.9785 15.793C11.0703 15.793 10.4609 15.3301 10.4082 14.5977H8.71484C8.79102 16.1797 10.0918 17.2168 12.002 17.2168C13.9121 17.2168 15.3066 16.168 15.3066 14.6914C15.3066 13.5547 14.5918 12.8047 13.4141 12.6289V12.5234C14.3223 12.2949 14.9668 11.627 14.9727 10.6016C14.9785 9.36523 13.9355 8.32812 12.0605 8.32812C10.1562 8.32812 8.95508 9.37695 8.89648 10.918H10.5312C10.5898 10.1387 11.1172 9.69336 11.9727 9.69336C12.7988 9.69336 13.2969 10.1914 13.2969 10.8418C13.2969 11.5449 12.752 12.0312 11.9492 12.0312H10.8945V13.291Z" fill="white"/>
</svg>
